Exp4/testeGeradorPulso.vcd
$date
  Mon Sep 27 13:53:33 2021
$end
$version
  GHDL v0
$end
$timescale
  1 fs
$end
$scope module standard $end
$upscope $end
$scope module std_logic_1164 $end
$upscope $end
$scope module numeric_std $end
$upscope $end
$scope module gerador_pulso_tb $end
$var reg 1 ! clock $end
$var reg 1 " reset $end
$var reg 1 # gera $end
$var reg 1 $ para $end
$var reg 1 % pulso $end
$var reg 1 & pronto $end
$var reg 1 ' tbclock $end
$var reg 1 ( tbsimended $end
$scope module dut $end
$var reg 1 ) clock $end
$var reg 1 * reset $end
$var reg 1 + gera $end
$var reg 1 , para $end
$var reg 1 - pulso $end
$var reg 1 . pronto $end
$comment reg_estado is not handled $end
$comment prox_estado is not handled $end
$var integer 32 / reg_cont $end
$var integer 32 0 prox_cont $end
$upscope $end
$upscope $end
$enddefinitions $end
#0
0!
1"
0#
0$
0%
0&
0'
0(
0)
1*
0+
0,
0-
0.
b0 /
b0 0
#10000000
1!
1'
1)
#20000000
0!
0'
0)
#30000000
1!
1'
1)
#40000000
0!
0'
0)
#50000000
1!
1'
1)
#60000000
0!
0"
0'
0)
0*
#70000000
1!
1'
1)
#80000000
0!
0'
0)
#90000000
1!
1'
1)
#100000000
0!
0'
0)
#110000000
1!
1'
1)
#120000000
0!
1#
0'
0)
1+
#130000000
1!
1%
1'
1)
1-
b1 0
#140000000
0!
0'
0)
#150000000
1!
1'
1)
1-
b1 /
b10 0
#160000000
0!
0'
0)
#170000000
1!
1'
1)
1-
b10 /
b11 0
#180000000
0!
0'
0)
#190000000
1!
1'
1)
1-
b11 /
b100 0
#200000000
0!
0'
0)
#210000000
1!
1'
1)
1-
b100 /
b101 0
#220000000
0!
0'
0)
#230000000
1!
1'
1)
1-
b101 /
b110 0
#240000000
0!
0'
0)
#250000000
1!
1'
1)
1-
b110 /
b111 0
#260000000
0!
0'
0)
#270000000
1!
1'
1)
1-
b111 /
b1000 0
#280000000
0!
0'
0)
#290000000
1!
1'
1)
1-
b1000 /
b1001 0
#300000000
0!
0'
0)
#310000000
1!
1'
1)
1-
b1001 /
b1010 0
#320000000
0!
0'
0)
#330000000
1!
1'
1)
1-
b1010 /
b1011 0
#340000000
0!
0'
0)
#350000000
1!
1'
1)
1-
b1011 /
b1100 0
#360000000
0!
0'
0)
#370000000
1!
1'
1)
1-
b1100 /
b1101 0
#380000000
0!
0'
0)
#390000000
1!
1'
1)
1-
b1101 /
b1110 0
#400000000
0!
0'
0)
#410000000
1!
1'
1)
1-
b1110 /
b1111 0
#420000000
0!
0'
0)
#430000000
1!
1'
1)
1-
b1111 /
b10000 0
#440000000
0!
0'
0)
#450000000
1!
1'
1)
1-
b10000 /
b10001 0
#460000000
0!
0'
0)
#470000000
1!
1'
1)
1-
b10001 /
b10010 0
#480000000
0!
0'
0)
#490000000
1!
1'
1)
1-
b10010 /
b10011 0
#500000000
0!
0'
0)
#510000000
1!
1'
1)
1-
b10011 /
b10100 0
#520000000
0!
0'
0)
#530000000
1!
1'
1)
1-
b10100 /
b10101 0
#540000000
0!
0'
0)
#550000000
1!
1'
1)
1-
b10101 /
b10110 0
#560000000
0!
0'
0)
#570000000
1!
1'
1)
1-
b10110 /
b10111 0
#580000000
0!
0'
0)
#590000000
1!
1'
1)
1-
b10111 /
b11000 0
#600000000
0!
0'
0)
#610000000
1!
1'
1)
1-
b11000 /
b11001 0
#620000000
0!
0'
0)
#630000000
1!
1'
1)
1-
b11001 /
b11010 0
#640000000
0!
0'
0)
#650000000
1!
1'
1)
1-
b11010 /
b11011 0
#660000000
0!
0'
0)
#670000000
1!
1'
1)
1-
b11011 /
b11100 0
#680000000
0!
0'
0)
#690000000
1!
1'
1)
1-
b11100 /
b11101 0
#700000000
0!
0'
0)
#710000000
1!
1'
1)
1-
b11101 /
b11110 0
#720000000
0!
0'
0)
#730000000
1!
1'
1)
1-
b11110 /
b11111 0
#740000000
0!
0'
0)
#750000000
1!
1'
1)
1-
b11111 /
b100000 0
#760000000
0!
0'
0)
#770000000
1!
1'
1)
1-
b100000 /
b100001 0
#780000000
0!
0'
0)
#790000000
1!
1'
1)
1-
b100001 /
b100010 0
#800000000
0!
0'
0)
#810000000
1!
1'
1)
1-
b100010 /
b100011 0
#820000000
0!
0'
0)
#830000000
1!
1'
1)
1-
b100011 /
b100100 0
#840000000
0!
0'
0)
#850000000
1!
1'
1)
1-
b100100 /
b100101 0
#860000000
0!
0'
0)
#870000000
1!
1'
1)
1-
b100101 /
b100110 0
#880000000
0!
0'
0)
#890000000
1!
1'
1)
1-
b100110 /
b100111 0
#900000000
0!
0'
0)
#910000000
1!
1'
1)
1-
b100111 /
b101000 0
#920000000
0!
0'
0)
#930000000
1!
1'
1)
1-
b101000 /
b101001 0
#940000000
0!
0'
0)
#950000000
1!
1'
1)
1-
b101001 /
b101010 0
#960000000
0!
0'
0)
#970000000
1!
1'
1)
1-
b101010 /
b101011 0
#980000000
0!
0'
0)
#990000000
1!
1'
1)
1-
b101011 /
b101100 0
#1000000000
0!
0'
0)
#1010000000
1!
1'
1)
1-
b101100 /
b101101 0
#1020000000
0!
0'
0)
#1030000000
1!
1'
1)
1-
b101101 /
b101110 0
#1040000000
0!
0'
0)
#1050000000
1!
1'
1)
1-
b101110 /
b101111 0
#1060000000
0!
0'
0)
#1070000000
1!
1'
1)
1-
b101111 /
b110000 0
#1080000000
0!
0'
0)
#1090000000
1!
1'
1)
1-
b110000 /
b110001 0
#1100000000
0!
0'
0)
#1110000000
1!
1'
1)
1-
b110001 /
b110010 0
#1120000000
0!
0'
0)
#1130000000
1!
1'
1)
1-
b110010 /
b110011 0
#1140000000
0!
0'
0)
#1150000000
1!
1'
1)
1-
b110011 /
b110100 0
#1160000000
0!
0'
0)
#1170000000
1!
1'
1)
1-
b110100 /
b110101 0
#1180000000
0!
0'
0)
#1190000000
1!
1'
1)
1-
b110101 /
b110110 0
#1200000000
0!
0'
0)
#1210000000
1!
1'
1)
1-
b110110 /
b110111 0
#1220000000
0!
0'
0)
#1230000000
1!
1'
1)
1-
b110111 /
b111000 0
#1240000000
0!
0'
0)
#1250000000
1!
1'
1)
1-
b111000 /
b111001 0
#1260000000
0!
0'
0)
#1270000000
1!
1'
1)
1-
b111001 /
b111010 0
#1280000000
0!
0'
0)
#1290000000
1!
1'
1)
1-
b111010 /
b111011 0
#1300000000
0!
0'
0)
#1310000000
1!
1'
1)
1-
b111011 /
b111100 0
#1320000000
0!
0'
0)
#1330000000
1!
1'
1)
1-
b111100 /
b111101 0
#1340000000
0!
0'
0)
#1350000000
1!
1'
1)
1-
b111101 /
b111110 0
#1360000000
0!
0'
0)
#1370000000
1!
1'
1)
1-
b111110 /
b111111 0
#1380000000
0!
0'
0)
#1390000000
1!
1'
1)
1-
b111111 /
b1000000 0
#1400000000
0!
0'
0)
#1410000000
1!
1'
1)
1-
b1000000 /
b1000001 0
#1420000000
0!
0'
0)
#1430000000
1!
1'
1)
1-
b1000001 /
b1000010 0
#1440000000
0!
0'
0)
#1450000000
1!
1'
1)
1-
b1000010 /
b1000011 0
#1460000000
0!
0'
0)
#1470000000
1!
1'
1)
1-
b1000011 /
b1000100 0
#1480000000
0!
0'
0)
#1490000000
1!
1'
1)
1-
b1000100 /
b1000101 0
#1500000000
0!
0'
0)
#1510000000
1!
1'
1)
1-
b1000101 /
b1000110 0
#1520000000
0!
0'
0)
#1530000000
1!
1'
1)
1-
b1000110 /
b1000111 0
#1540000000
0!
0'
0)
#1550000000
1!
1'
1)
1-
b1000111 /
b1001000 0
#1560000000
0!
0'
0)
#1570000000
1!
1'
1)
1-
b1001000 /
b1001001 0
#1580000000
0!
0'
0)
#1590000000
1!
1'
1)
1-
b1001001 /
b1001010 0
#1600000000
0!
0'
0)
#1610000000
1!
1'
1)
1-
b1001010 /
b1001011 0
#1620000000
0!
0'
0)
#1630000000
1!
1'
1)
1-
b1001011 /
b1001100 0
#1640000000
0!
0'
0)
#1650000000
1!
1'
1)
1-
b1001100 /
b1001101 0
#1660000000
0!
0'
0)
#1670000000
1!
1'
1)
1-
b1001101 /
b1001110 0
#1680000000
0!
0'
0)
#1690000000
1!
1'
1)
1-
b1001110 /
b1001111 0
#1700000000
0!
0'
0)
#1710000000
1!
1'
1)
1-
b1001111 /
b1010000 0
#1720000000
0!
0'
0)
#1730000000
1!
1'
1)
1-
b1010000 /
b1010001 0
#1740000000
0!
0'
0)
#1750000000
1!
1'
1)
1-
b1010001 /
b1010010 0
#1760000000
0!
0'
0)
#1770000000
1!
1'
1)
1-
b1010010 /
b1010011 0
#1780000000
0!
0'
0)
#1790000000
1!
1'
1)
1-
b1010011 /
b1010100 0
#1800000000
0!
0'
0)
#1810000000
1!
1'
1)
1-
b1010100 /
b1010101 0
#1820000000
0!
0'
0)
#1830000000
1!
1'
1)
1-
b1010101 /
b1010110 0
#1840000000
0!
0'
0)
#1850000000
1!
1'
1)
1-
b1010110 /
b1010111 0
#1860000000
0!
0'
0)
#1870000000
1!
1'
1)
1-
b1010111 /
b1011000 0
#1880000000
0!
0'
0)
#1890000000
1!
1'
1)
1-
b1011000 /
b1011001 0
#1900000000
0!
0'
0)
#1910000000
1!
1'
1)
1-
b1011001 /
b1011010 0
#1920000000
0!
0'
0)
#1930000000
1!
1'
1)
1-
b1011010 /
b1011011 0
#1940000000
0!
0'
0)
#1950000000
1!
1'
1)
1-
b1011011 /
b1011100 0
#1960000000
0!
0'
0)
#1970000000
1!
1'
1)
1-
b1011100 /
b1011101 0
#1980000000
0!
0'
0)
#1990000000
1!
1'
1)
1-
b1011101 /
b1011110 0
#2000000000
0!
0'
0)
#2010000000
1!
1'
1)
1-
b1011110 /
b1011111 0
#2020000000
0!
0'
0)
#2030000000
1!
1'
1)
1-
b1011111 /
b1100000 0
#2040000000
0!
0'
0)
#2050000000
1!
1'
1)
1-
b1100000 /
b1100001 0
#2060000000
0!
0'
0)
#2070000000
1!
1'
1)
1-
b1100001 /
b1100010 0
#2080000000
0!
0'
0)
#2090000000
1!
1'
1)
1-
b1100010 /
b1100011 0
#2100000000
0!
0'
0)
#2110000000
1!
1'
1)
1-
b1100011 /
b1100100 0
#2120000000
0!
0'
0)
#2130000000
1!
1'
1)
1-
b1100100 /
b1100101 0
#2140000000
0!
0'
0)
#2150000000
1!
1'
1)
1-
b1100101 /
b1100110 0
#2160000000
0!
0'
0)
#2170000000
1!
1'
1)
1-
b1100110 /
b1100111 0
#2180000000
0!
0'
0)
#2190000000
1!
1'
1)
1-
b1100111 /
b1101000 0
#2200000000
0!
0'
0)
#2210000000
1!
1'
1)
1-
b1101000 /
b1101001 0
#2220000000
0!
0'
0)
#2230000000
1!
1'
1)
1-
b1101001 /
b1101010 0
#2240000000
0!
0'
0)
#2250000000
1!
1'
1)
1-
b1101010 /
b1101011 0
#2260000000
0!
0'
0)
#2270000000
1!
1'
1)
1-
b1101011 /
b1101100 0
#2280000000
0!
0'
0)
#2290000000
1!
1'
1)
1-
b1101100 /
b1101101 0
#2300000000
0!
0'
0)
#2310000000
1!
1'
1)
1-
b1101101 /
b1101110 0
#2320000000
0!
0'
0)
#2330000000
1!
1'
1)
1-
b1101110 /
b1101111 0
#2340000000
0!
0'
0)
#2350000000
1!
1'
1)
1-
b1101111 /
b1110000 0
#2360000000
0!
0'
0)
#2370000000
1!
1'
1)
1-
b1110000 /
b1110001 0
#2380000000
0!
0'
0)
#2390000000
1!
1'
1)
1-
b1110001 /
b1110010 0
#2400000000
0!
0'
0)
#2410000000
1!
1'
1)
1-
b1110010 /
b1110011 0
#2420000000
0!
0'
0)
#2430000000
1!
1'
1)
1-
b1110011 /
b1110100 0
#2440000000
0!
0'
0)
#2450000000
1!
1'
1)
1-
b1110100 /
b1110101 0
#2460000000
0!
0'
0)
#2470000000
1!
1'
1)
1-
b1110101 /
b1110110 0
#2480000000
0!
0'
0)
#2490000000
1!
1'
1)
1-
b1110110 /
b1110111 0
#2500000000
0!
0'
0)
#2510000000
1!
1'
1)
1-
b1110111 /
b1111000 0
#2520000000
0!
0'
0)
#2530000000
1!
1'
1)
1-
b1111000 /
b1111001 0
#2540000000
0!
0'
0)
#2550000000
1!
1'
1)
1-
b1111001 /
b1111010 0
#2560000000
0!
0'
0)
#2570000000
1!
1'
1)
1-
b1111010 /
b1111011 0
#2580000000
0!
0'
0)
#2590000000
1!
1'
1)
1-
b1111011 /
b1111100 0
#2600000000
0!
0'
0)
#2610000000
1!
1'
1)
1-
b1111100 /
b1111101 0
#2620000000
0!
0'
0)
#2630000000
1!
1'
1)
1-
b1111101 /
b1111110 0
#2640000000
0!
0'
0)
#2650000000
1!
1'
1)
1-
b1111110 /
b1111111 0
#2660000000
0!
0'
0)
#2670000000
1!
1'
1)
1-
b1111111 /
b10000000 0
#2680000000
0!
0'
0)
#2690000000
1!
1'
1)
1-
b10000000 /
b10000001 0
#2700000000
0!
0'
0)
#2710000000
1!
1'
1)
1-
b10000001 /
b10000010 0
#2720000000
0!
0'
0)
#2730000000
1!
1'
1)
1-
b10000010 /
b10000011 0
#2740000000
0!
0'
0)
#2750000000
1!
1'
1)
1-
b10000011 /
b10000100 0
#2760000000
0!
0'
0)
#2770000000
1!
1'
1)
1-
b10000100 /
b10000101 0
#2780000000
0!
0'
0)
#2790000000
1!
1'
1)
1-
b10000101 /
b10000110 0
#2800000000
0!
0'
0)
#2810000000
1!
1'
1)
1-
b10000110 /
b10000111 0
#2820000000
0!
0'
0)
#2830000000
1!
1'
1)
1-
b10000111 /
b10001000 0
#2840000000
0!
0'
0)
#2850000000
1!
1'
1)
1-
b10001000 /
b10001001 0
#2860000000
0!
0'
0)
#2870000000
1!
1'
1)
1-
b10001001 /
b10001010 0
#2880000000
0!
0'
0)
#2890000000
1!
1'
1)
1-
b10001010 /
b10001011 0
#2900000000
0!
0'
0)
#2910000000
1!
1'
1)
1-
b10001011 /
b10001100 0
#2920000000
0!
0'
0)
#2930000000
1!
1'
1)
1-
b10001100 /
b10001101 0
#2940000000
0!
0'
0)
#2950000000
1!
1'
1)
1-
b10001101 /
b10001110 0
#2960000000
0!
0'
0)
#2970000000
1!
1'
1)
1-
b10001110 /
b10001111 0
#2980000000
0!
0'
0)
#2990000000
1!
1'
1)
1-
b10001111 /
b10010000 0
#3000000000
0!
0'
0)
#3010000000
1!
1'
1)
1-
b10010000 /
b10010001 0
#3020000000
0!
0'
0)
#3030000000
1!
1'
1)
1-
b10010001 /
b10010010 0
#3040000000
0!
0'
0)
#3050000000
1!
1'
1)
1-
b10010010 /
b10010011 0
#3060000000
0!
0'
0)
#3070000000
1!
1'
1)
1-
b10010011 /
b10010100 0
#3080000000
0!
0'
0)
#3090000000
1!
1'
1)
1-
b10010100 /
b10010101 0
#3100000000
0!
0'
0)
#3110000000
1!
1'
1)
1-
b10010101 /
b10010110 0
#3120000000
0!
0'
0)
#3130000000
1!
1'
1)
1-
b10010110 /
b10010111 0
#3140000000
0!
0'
0)
#3150000000
1!
1'
1)
1-
b10010111 /
b10011000 0
#3160000000
0!
0'
0)
#3170000000
1!
1'
1)
1-
b10011000 /
b10011001 0
#3180000000
0!
0'
0)
#3190000000
1!
1'
1)
1-
b10011001 /
b10011010 0
#3200000000
0!
0'
0)
#3210000000
1!
1'
1)
1-
b10011010 /
b10011011 0
#3220000000
0!
0'
0)
#3230000000
1!
1'
1)
1-
b10011011 /
b10011100 0
#3240000000
0!
0'
0)
#3250000000
1!
1'
1)
1-
b10011100 /
b10011101 0
#3260000000
0!
0'
0)
#3270000000
1!
1'
1)
1-
b10011101 /
b10011110 0
#3280000000
0!
0'
0)
#3290000000
1!
1'
1)
1-
b10011110 /
b10011111 0
#3300000000
0!
0'
0)
#3310000000
1!
1'
1)
1-
b10011111 /
b10100000 0
#3320000000
0!
0'
0)
#3330000000
1!
1'
1)
1-
b10100000 /
b10100001 0
#3340000000
0!
0'
0)
#3350000000
1!
1'
1)
1-
b10100001 /
b10100010 0
#3360000000
0!
0'
0)
#3370000000
1!
1'
1)
1-
b10100010 /
b10100011 0
#3380000000
0!
0'
0)
#3390000000
1!
1'
1)
1-
b10100011 /
b10100100 0
#3400000000
0!
0'
0)
#3410000000
1!
1'
1)
1-
b10100100 /
b10100101 0
#3420000000
0!
0'
0)
#3430000000
1!
1'
1)
1-
b10100101 /
b10100110 0
#3440000000
0!
0'
0)
#3450000000
1!
1'
1)
1-
b10100110 /
b10100111 0
#3460000000
0!
0'
0)
#3470000000
1!
1'
1)
1-
b10100111 /
b10101000 0
#3480000000
0!
0'
0)
#3490000000
1!
1'
1)
1-
b10101000 /
b10101001 0
#3500000000
0!
0'
0)
#3510000000
1!
1'
1)
1-
b10101001 /
b10101010 0
#3520000000
0!
0'
0)
#3530000000
1!
1'
1)
1-
b10101010 /
b10101011 0
#3540000000
0!
0'
0)
#3550000000
1!
1'
1)
1-
b10101011 /
b10101100 0
#3560000000
0!
0'
0)
#3570000000
1!
1'
1)
1-
b10101100 /
b10101101 0
#3580000000
0!
0'
0)
#3590000000
1!
1'
1)
1-
b10101101 /
b10101110 0
#3600000000
0!
0'
0)
#3610000000
1!
1'
1)
1-
b10101110 /
b10101111 0
#3620000000
0!
0'
0)
#3630000000
1!
1'
1)
1-
b10101111 /
b10110000 0
#3640000000
0!
0'
0)
#3650000000
1!
1'
1)
1-
b10110000 /
b10110001 0
#3660000000
0!
0'
0)
#3670000000
1!
1'
1)
1-
b10110001 /
b10110010 0
#3680000000
0!
0'
0)
#3690000000
1!
1'
1)
1-
b10110010 /
b10110011 0
#3700000000
0!
0'
0)
#3710000000
1!
1'
1)
1-
b10110011 /
b10110100 0
#3720000000
0!
0'
0)
#3730000000
1!
1'
1)
1-
b10110100 /
b10110101 0
#3740000000
0!
0'
0)
#3750000000
1!
1'
1)
1-
b10110101 /
b10110110 0
#3760000000
0!
0'
0)
#3770000000
1!
1'
1)
1-
b10110110 /
b10110111 0
#3780000000
0!
0'
0)
#3790000000
1!
1'
1)
1-
b10110111 /
b10111000 0
#3800000000
0!
0'
0)
#3810000000
1!
1'
1)
1-
b10111000 /
b10111001 0
#3820000000
0!
0'
0)
#3830000000
1!
1'
1)
1-
b10111001 /
b10111010 0
#3840000000
0!
0'
0)
#3850000000
1!
1'
1)
1-
b10111010 /
b10111011 0
#3860000000
0!
0'
0)
#3870000000
1!
1'
1)
1-
b10111011 /
b10111100 0
#3880000000
0!
0'
0)
#3890000000
1!
1'
1)
1-
b10111100 /
b10111101 0
#3900000000
0!
0'
0)
#3910000000
1!
1'
1)
1-
b10111101 /
b10111110 0
#3920000000
0!
0'
0)
#3930000000
1!
1'
1)
1-
b10111110 /
b10111111 0
#3940000000
0!
0'
0)
#3950000000
1!
1'
1)
1-
b10111111 /
b11000000 0
#3960000000
0!
0'
0)
#3970000000
1!
1'
1)
1-
b11000000 /
b11000001 0
#3980000000
0!
0'
0)
#3990000000
1!
1'
1)
1-
b11000001 /
b11000010 0
#4000000000
0!
0'
0)
#4010000000
1!
1'
1)
1-
b11000010 /
b11000011 0
#4020000000
0!
0'
0)
#4030000000
1!
1'
1)
1-
b11000011 /
b11000100 0
#4040000000
0!
0'
0)
#4050000000
1!
1'
1)
1-
b11000100 /
b11000101 0
#4060000000
0!
0'
0)
#4070000000
1!
1'
1)
1-
b11000101 /
b11000110 0
#4080000000
0!
0'
0)
#4090000000
1!
1'
1)
1-
b11000110 /
b11000111 0
#4100000000
0!
0'
0)
#4110000000
1!
1'
1)
1-
b11000111 /
b11001000 0
#4120000000
0!
0'
0)
#4130000000
1!
1'
1)
1-
b11001000 /
b11001001 0
#4140000000
0!
0'
0)
#4150000000
1!
1'
1)
1-
b11001001 /
b11001010 0
#4160000000
0!
0'
0)
#4170000000
1!
1'
1)
1-
b11001010 /
b11001011 0
#4180000000
0!
0'
0)
#4190000000
1!
1'
1)
1-
b11001011 /
b11001100 0
#4200000000
0!
0'
0)
#4210000000
1!
1'
1)
1-
b11001100 /
b11001101 0
#4220000000
0!
0'
0)
#4230000000
1!
1'
1)
1-
b11001101 /
b11001110 0
#4240000000
0!
0'
0)
#4250000000
1!
1'
1)
1-
b11001110 /
b11001111 0
#4260000000
0!
0'
0)
#4270000000
1!
1'
1)
1-
b11001111 /
b11010000 0
#4280000000
0!
0'
0)
#4290000000
1!
1'
1)
1-
b11010000 /
b11010001 0
#4300000000
0!
0'
0)
#4310000000
1!
1'
1)
1-
b11010001 /
b11010010 0
#4320000000
0!
0'
0)
#4330000000
1!
1'
1)
1-
b11010010 /
b11010011 0
#4340000000
0!
0'
0)
#4350000000
1!
1'
1)
1-
b11010011 /
b11010100 0
#4360000000
0!
0'
0)
#4370000000
1!
1'
1)
1-
b11010100 /
b11010101 0
#4380000000
0!
0'
0)
#4390000000
1!
1'
1)
1-
b11010101 /
b11010110 0
#4400000000
0!
0'
0)
#4410000000
1!
1'
1)
1-
b11010110 /
b11010111 0
#4420000000
0!
0'
0)
#4430000000
1!
1'
1)
1-
b11010111 /
b11011000 0
#4440000000
0!
0'
0)
#4450000000
1!
1'
1)
1-
b11011000 /
b11011001 0
#4460000000
0!
0'
0)
#4470000000
1!
1'
1)
1-
b11011001 /
b11011010 0
#4480000000
0!
0'
0)
#4490000000
1!
1'
1)
1-
b11011010 /
b11011011 0
#4500000000
0!
0'
0)
#4510000000
1!
1'
1)
1-
b11011011 /
b11011100 0
#4520000000
0!
0'
0)
#4530000000
1!
1'
1)
1-
b11011100 /
b11011101 0
#4540000000
0!
0'
0)
#4550000000
1!
1'
1)
1-
b11011101 /
b11011110 0
#4560000000
0!
0'
0)
#4570000000
1!
1'
1)
1-
b11011110 /
b11011111 0
#4580000000
0!
0'
0)
#4590000000
1!
1'
1)
1-
b11011111 /
b11100000 0
#4600000000
0!
0'
0)
#4610000000
1!
1'
1)
1-
b11100000 /
b11100001 0
#4620000000
0!
0'
0)
#4630000000
1!
1'
1)
1-
b11100001 /
b11100010 0
#4640000000
0!
0'
0)
#4650000000
1!
1'
1)
1-
b11100010 /
b11100011 0
#4660000000
0!
0'
0)
#4670000000
1!
1'
1)
1-
b11100011 /
b11100100 0
#4680000000
0!
0'
0)
#4690000000
1!
1'
1)
1-
b11100100 /
b11100101 0
#4700000000
0!
0'
0)
#4710000000
1!
1'
1)
1-
b11100101 /
b11100110 0
#4720000000
0!
0'
0)
#4730000000
1!
1'
1)
1-
b11100110 /
b11100111 0
#4740000000
0!
0'
0)
#4750000000
1!
1'
1)
1-
b11100111 /
b11101000 0
#4760000000
0!
0'
0)
#4770000000
1!
1'
1)
1-
b11101000 /
b11101001 0
#4780000000
0!
0'
0)
#4790000000
1!
1'
1)
1-
b11101001 /
b11101010 0
#4800000000
0!
0'
0)
#4810000000
1!
1'
1)
1-
b11101010 /
b11101011 0
#4820000000
0!
0'
0)
#4830000000
1!
1'
1)
1-
b11101011 /
b11101100 0
#4840000000
0!
0'
0)
#4850000000
1!
1'
1)
1-
b11101100 /
b11101101 0
#4860000000
0!
0'
0)
#4870000000
1!
1'
1)
1-
b11101101 /
b11101110 0
#4880000000
0!
0'
0)
#4890000000
1!
1'
1)
1-
b11101110 /
b11101111 0
#4900000000
0!
0'
0)
#4910000000
1!
1'
1)
1-
b11101111 /
b11110000 0
#4920000000
0!
0'
0)
#4930000000
1!
1'
1)
1-
b11110000 /
b11110001 0
#4940000000
0!
0'
0)
#4950000000
1!
1'
1)
1-
b11110001 /
b11110010 0
#4960000000
0!
0'
0)
#4970000000
1!
1'
1)
1-
b11110010 /
b11110011 0
#4980000000
0!
0'
0)
#4990000000
1!
1'
1)
1-
b11110011 /
b11110100 0
#5000000000
0!
0'
0)
#5010000000
1!
1'
1)
1-
b11110100 /
b11110101 0
#5020000000
0!
0'
0)
#5030000000
1!
1'
1)
1-
b11110101 /
b11110110 0
#5040000000
0!
0'
0)
#5050000000
1!
1'
1)
1-
b11110110 /
b11110111 0
#5060000000
0!
0'
0)
#5070000000
1!
1'
1)
1-
b11110111 /
b11111000 0
#5080000000
0!
0'
0)
#5090000000
1!
1'
1)
1-
b11111000 /
b11111001 0
#5100000000
0!
0'
0)
#5110000000
1!
1'
1)
1-
b11111001 /
b11111010 0
#5120000000
0!
0'
0)
#5130000000
1!
1'
1)
1-
b11111010 /
b11111011 0
#5140000000
0!
0'
0)
#5150000000
1!
1'
1)
1-
b11111011 /
b11111100 0
#5160000000
0!
0'
0)
#5170000000
1!
1'
1)
1-
b11111100 /
b11111101 0
#5180000000
0!
0'
0)
#5190000000
1!
1'
1)
1-
b11111101 /
b11111110 0
#5200000000
0!
0'
0)
#5210000000
1!
1'
1)
1-
b11111110 /
b11111111 0
#5220000000
0!
0'
0)
#5230000000
1!
1'
1)
1-
b11111111 /
b100000000 0
#5240000000
0!
0'
0)
#5250000000
1!
1'
1)
1-
b100000000 /
b100000001 0
#5260000000
0!
0'
0)
#5270000000
1!
1'
1)
1-
b100000001 /
b100000010 0
#5280000000
0!
0'
0)
#5290000000
1!
1'
1)
1-
b100000010 /
b100000011 0
#5300000000
0!
0'
0)
#5310000000
1!
1'
1)
1-
b100000011 /
b100000100 0
#5320000000
0!
0'
0)
#5330000000
1!
1'
1)
1-
b100000100 /
b100000101 0
#5340000000
0!
0'
0)
#5350000000
1!
1'
1)
1-
b100000101 /
b100000110 0
#5360000000
0!
0'
0)
#5370000000
1!
1'
1)
1-
b100000110 /
b100000111 0
#5380000000
0!
0'
0)
#5390000000
1!
1'
1)
1-
b100000111 /
b100001000 0
#5400000000
0!
0'
0)
#5410000000
1!
1'
1)
1-
b100001000 /
b100001001 0
#5420000000
0!
0'
0)
#5430000000
1!
1'
1)
1-
b100001001 /
b100001010 0
#5440000000
0!
0'
0)
#5450000000
1!
1'
1)
1-
b100001010 /
b100001011 0
#5460000000
0!
0'
0)
#5470000000
1!
1'
1)
1-
b100001011 /
b100001100 0
#5480000000
0!
0'
0)
#5490000000
1!
1'
1)
1-
b100001100 /
b100001101 0
#5500000000
0!
0'
0)
#5510000000
1!
1'
1)
1-
b100001101 /
b100001110 0
#5520000000
0!
0'
0)
#5530000000
1!
1'
1)
1-
b100001110 /
b100001111 0
#5540000000
0!
0'
0)
#5550000000
1!
1'
1)
1-
b100001111 /
b100010000 0
#5560000000
0!
0'
0)
#5570000000
1!
1'
1)
1-
b100010000 /
b100010001 0
#5580000000
0!
0'
0)
#5590000000
1!
1'
1)
1-
b100010001 /
b100010010 0
#5600000000
0!
0'
0)
#5610000000
1!
1'
1)
1-
b100010010 /
b100010011 0
#5620000000
0!
0'
0)
#5630000000
1!
1'
1)
1-
b100010011 /
b100010100 0
#5640000000
0!
0'
0)
#5650000000
1!
1'
1)
1-
b100010100 /
b100010101 0
#5660000000
0!
0'
0)
#5670000000
1!
1'
1)
1-
b100010101 /
b100010110 0
#5680000000
0!
0'
0)
#5690000000
1!
1'
1)
1-
b100010110 /
b100010111 0
#5700000000
0!
0'
0)
#5710000000
1!
1'
1)
1-
b100010111 /
b100011000 0
#5720000000
0!
0'
0)
#5730000000
1!
1'
1)
1-
b100011000 /
b100011001 0
#5740000000
0!
0'
0)
#5750000000
1!
1'
1)
1-
b100011001 /
b100011010 0
#5760000000
0!
0'
0)
#5770000000
1!
1'
1)
1-
b100011010 /
b100011011 0
#5780000000
0!
0'
0)
#5790000000
1!
1'
1)
1-
b100011011 /
b100011100 0
#5800000000
0!
0'
0)
#5810000000
1!
1'
1)
1-
b100011100 /
b100011101 0
#5820000000
0!
0'
0)
#5830000000
1!
1'
1)
1-
b100011101 /
b100011110 0
#5840000000
0!
0'
0)
#5850000000
1!
1'
1)
1-
b100011110 /
b100011111 0
#5860000000
0!
0'
0)
#5870000000
1!
1'
1)
1-
b100011111 /
b100100000 0
#5880000000
0!
0'
0)
#5890000000
1!
1'
1)
1-
b100100000 /
b100100001 0
#5900000000
0!
0'
0)
#5910000000
1!
1'
1)
1-
b100100001 /
b100100010 0
#5920000000
0!
0'
0)
#5930000000
1!
1'
1)
1-
b100100010 /
b100100011 0
#5940000000
0!
0'
0)
#5950000000
1!
1'
1)
1-
b100100011 /
b100100100 0
#5960000000
0!
0'
0)
#5970000000
1!
1'
1)
1-
b100100100 /
b100100101 0
#5980000000
0!
0'
0)
#5990000000
1!
1'
1)
1-
b100100101 /
b100100110 0
#6000000000
0!
0'
0)
#6010000000
1!
1'
1)
1-
b100100110 /
b100100111 0
#6020000000
0!
0'
0)
#6030000000
1!
1'
1)
1-
b100100111 /
b100101000 0
#6040000000
0!
0'
0)
#6050000000
1!
1'
1)
1-
b100101000 /
b100101001 0
#6060000000
0!
0'
0)
#6070000000
1!
1'
1)
1-
b100101001 /
b100101010 0
#6080000000
0!
0'
0)
#6090000000
1!
1'
1)
1-
b100101010 /
b100101011 0
#6100000000
0!
0'
0)
#6110000000
1!
1'
1)
1-
b100101011 /
b100101100 0
#6120000000
0!
0'
0)
#6130000000
1!
1'
1)
1-
b100101100 /
b100101101 0
#6140000000
0!
0'
0)
#6150000000
1!
1'
1)
1-
b100101101 /
b100101110 0
#6160000000
0!
0'
0)
#6170000000
1!
1'
1)
1-
b100101110 /
b100101111 0
#6180000000
0!
0'
0)
#6190000000
1!
1'
1)
1-
b100101111 /
b100110000 0
#6200000000
0!
0'
0)
#6210000000
1!
1'
1)
1-
b100110000 /
b100110001 0
#6220000000
0!
0'
0)
#6230000000
1!
1'
1)
1-
b100110001 /
b100110010 0
#6240000000
0!
0'
0)
#6250000000
1!
1'
1)
1-
b100110010 /
b100110011 0
#6260000000
0!
0'
0)
#6270000000
1!
1'
1)
1-
b100110011 /
b100110100 0
#6280000000
0!
0'
0)
#6290000000
1!
1'
1)
1-
b100110100 /
b100110101 0
#6300000000
0!
0'
0)
#6310000000
1!
1'
1)
1-
b100110101 /
b100110110 0
