Exp2/Código Fornecido/testeSerial.vcd
$date
  Sun Sep 12 16:30:03 2021
$end
$version
  GHDL v0
$end
$timescale
  1 fs
$end
$scope module standard $end
$upscope $end
$scope module std_logic_1164 $end
$upscope $end
$scope module numeric_std $end
$upscope $end
$scope module tx_serial_tb $end
$var reg 1 ! clock_in $end
$var reg 1 " reset_in $end
$var reg 1 # partida_in $end
$var reg 7 $ dados_ascii_7_in[6:0] $end
$var reg 1 % saida_serial_out $end
$var reg 1 & pronto_out $end
$var reg 1 ' keep_simulating $end
$scope module dut $end
$var reg 1 ( clock $end
$var reg 1 ) reset $end
$var reg 1 * partida $end
$var reg 7 + dados_ascii[6:0] $end
$var reg 1 , saida_serial $end
$var reg 1 - pronto $end
$var reg 1 . s_reset $end
$var reg 1 / s_partida $end
$var reg 1 0 s_partida_ed $end
$var reg 1 1 s_zera $end
$var reg 1 2 s_conta $end
$var reg 1 3 s_carrega $end
$var reg 1 4 s_desloca $end
$var reg 1 5 s_tick $end
$var reg 1 6 s_fim $end
$scope module u1_uc $end
$var reg 1 7 clock $end
$var reg 1 8 reset $end
$var reg 1 9 partida $end
$var reg 1 : tick $end
$var reg 1 ; fim $end
$var reg 1 < zera $end
$var reg 1 = conta $end
$var reg 1 > carrega $end
$var reg 1 ? desloca $end
$var reg 1 @ pronto $end
$comment eatual is not handled $end
$comment eprox is not handled $end
$upscope $end
$scope module u2_fd $end
$var reg 1 A clock $end
$var reg 1 B reset $end
$var reg 1 C zera $end
$var reg 1 D conta $end
$var reg 1 E carrega $end
$var reg 1 F desloca $end
$var reg 7 G dados_ascii[6:0] $end
$var reg 1 H saida_serial $end
$var reg 1 I fim $end
$var reg 12 J s_dados[11:0] $end
$var reg 12 K s_saida[11:0] $end
$scope module u1 $end
$var reg 1 L clock $end
$var reg 1 M reset $end
$var reg 1 N carrega $end
$var reg 1 O desloca $end
$var reg 1 P entrada_serial $end
$var reg 12 Q dados[11:0] $end
$var reg 12 R saida[11:0] $end
$var reg 12 S iq[11:0] $end
$upscope $end
$scope module u2 $end
$var reg 1 T clock $end
$var reg 1 U zera $end
$var reg 1 V conta $end
$var reg 4 W q[3:0] $end
$var reg 1 X fim $end
$var integer 32 Y iq $end
$upscope $end
$upscope $end
$scope module u3_tick $end
$var reg 1 Z clock $end
$var reg 1 [ zera $end
$var reg 1 \ conta $end
$var reg 9 ] q[8:0] $end
$var reg 1 ^ fim $end
$var integer 32 _ iq $end
$upscope $end
$scope module u4_ed $end
$var reg 1 ` clk $end
$var reg 1 a signal_in $end
$var reg 1 b output $end
$var reg 1 c signal_d $end
$upscope $end
$upscope $end
$upscope $end
$enddefinitions $end
#0
0!
1"
0#
b0000000 $
1%
0&
1'
0(
1)
0*
b0000000 +
1,
0-
1.
0/
00
01
02
03
04
05
06
07
18
09
0:
0;
0<
0=
0>
0?
0@
0A
1B
0C
0D
0E
0F
b0000000 G
1H
0I
b110000000001 J
b111111111111 K
0L
1M
0N
0O
1P
b110000000001 Q
b111111111111 R
b111111111111 S
0T
0U
0V
b0000 W
0X
b0 Y
0Z
0[
1\
b000000000 ]
0^
b0 _
0`
0a
0b
Uc
#10000000
1!
1(
17
1A
1L
1T
1Z
b000000001 ]
b1 _
1`
0c
#20000000
0!
0(
07
0A
0L
0T
0Z
0`
#30000000
1!
1(
17
1A
1L
1T
1Z
b000000010 ]
b10 _
1`
#40000000
0!
0(
07
0A
0L
0T
0Z
0`
#50000000
1!
1(
17
1A
1L
1T
1Z
b000000011 ]
b11 _
1`
#60000000
0!
0(
07
0A
0L
0T
0Z
0`
#70000000
1!
1(
17
1A
1L
1T
1Z
b000000100 ]
b100 _
1`
#80000000
0!
0(
07
0A
0L
0T
0Z
0`
#90000000
1!
1(
17
1A
1L
1T
1Z
b000000101 ]
b101 _
1`
#100000000
0!
0(
07
0A
0L
0T
0Z
0`
#110000000
1!
1(
17
1A
1L
1T
1Z
b000000110 ]
b110 _
1`
#120000000
0!
0(
07
0A
0L
0T
0Z
0`
#130000000
1!
1(
17
1A
1L
1T
1Z
b000000111 ]
b111 _
1`
#140000000
0!
0(
07
0A
0L
0T
0Z
0`
#150000000
1!
1(
17
1A
1L
1T
1Z
b000001000 ]
b1000 _
1`
#160000000
0!
0(
07
0A
0L
0T
0Z
0`
#170000000
1!
1(
17
1A
1L
1T
1Z
b000001001 ]
b1001 _
1`
#180000000
0!
0(
07
0A
0L
0T
0Z
0`
#190000000
1!
1(
17
1A
1L
1T
1Z
b000001010 ]
b1010 _
1`
#200000000
0!
0(
07
0A
0L
0T
0Z
0`
#210000000
1!
1(
17
1A
1L
1T
1Z
b000001011 ]
b1011 _
1`
#220000000
0!
0(
07
0A
0L
0T
0Z
0`
#230000000
1!
1(
17
1A
1L
1T
1Z
b000001100 ]
b1100 _
1`
#240000000
0!
0(
07
0A
0L
0T
0Z
0`
#250000000
1!
1(
17
1A
1L
1T
1Z
b000001101 ]
b1101 _
1`
#260000000
0!
0(
07
0A
0L
0T
0Z
0`
#270000000
1!
1(
17
1A
1L
1T
1Z
b000001110 ]
b1110 _
1`
#280000000
0!
0(
07
0A
0L
0T
0Z
0`
#290000000
1!
1(
17
1A
1L
1T
1Z
b000001111 ]
b1111 _
1`
#300000000
0!
0(
07
0A
0L
0T
0Z
0`
#310000000
1!
1(
17
1A
1L
1T
1Z
b000010000 ]
b10000 _
1`
#320000000
0!
0(
07
0A
0L
0T
0Z
0`
#330000000
1!
1(
17
1A
1L
1T
1Z
b000010001 ]
b10001 _
1`
#340000000
0!
0(
07
0A
0L
0T
0Z
0`
#350000000
1!
1(
17
1A
1L
1T
1Z
b000010010 ]
b10010 _
1`
#360000000
0!
0(
07
0A
0L
0T
0Z
0`
#370000000
1!
1(
17
1A
1L
1T
1Z
b000010011 ]
b10011 _
1`
#380000000
0!
0(
07
0A
0L
0T
0Z
0`
#390000000
1!
1(
17
1A
1L
1T
1Z
b000010100 ]
b10100 _
1`
#400000000
0!
0"
0(
0)
0.
07
08
0A
0B
0L
0M
0T
0Z
0`
#410000000
1!
1(
17
1A
1L
1T
1Z
b000010101 ]
b10101 _
1`
#420000000
0!
0(
07
0A
0L
0T
0Z
0`
#430000000
1!
1(
17
1A
1L
1T
1Z
b000010110 ]
b10110 _
1`
#440000000
0!
0(
07
0A
0L
0T
0Z
0`
#450000000
1!
1(
17
1A
1L
1T
1Z
b000010111 ]
b10111 _
1`
#460000000
0!
0(
07
0A
0L
0T
0Z
0`
#470000000
1!
1(
17
1A
1L
1T
1Z
b000011000 ]
b11000 _
1`
#480000000
0!
0(
07
0A
0L
0T
0Z
0`
#490000000
1!
1(
17
1A
1L
1T
1Z
b000011001 ]
b11001 _
1`
#500000000
0!
0(
07
0A
0L
0T
0Z
0`
#510000000
1!
1(
17
1A
1L
1T
1Z
b000011010 ]
b11010 _
1`
#520000000
0!
0(
07
0A
0L
0T
0Z
0`
#530000000
1!
1(
17
1A
1L
1T
1Z
b000011011 ]
b11011 _
1`
#540000000
0!
0(
07
0A
0L
0T
0Z
0`
#550000000
1!
1(
17
1A
1L
1T
1Z
b000011100 ]
b11100 _
1`
#560000000
0!
0(
07
0A
0L
0T
0Z
0`
#570000000
1!
1(
17
1A
1L
1T
1Z
b000011101 ]
b11101 _
1`
#580000000
0!
0(
07
0A
0L
0T
0Z
0`
#590000000
1!
1(
17
1A
1L
1T
1Z
b000011110 ]
b11110 _
1`
#600000000
0!
0(
07
0A
0L
0T
0Z
0`
#610000000
1!
1(
17
1A
1L
1T
1Z
b000011111 ]
b11111 _
1`
#620000000
0!
0(
07
0A
0L
0T
0Z
0`
#630000000
1!
1(
17
1A
1L
1T
1Z
b000100000 ]
b100000 _
1`
#640000000
0!
0(
07
0A
0L
0T
0Z
0`
#650000000
1!
1(
17
1A
1L
1T
1Z
b000100001 ]
b100001 _
1`
#660000000
0!
0(
07
0A
0L
0T
0Z
0`
#670000000
1!
1(
17
1A
1L
1T
1Z
b000100010 ]
b100010 _
1`
#680000000
0!
0(
07
0A
0L
0T
0Z
0`
#690000000
1!
1(
17
1A
1L
1T
1Z
b000100011 ]
b100011 _
1`
#700000000
0!
0(
07
0A
0L
0T
0Z
0`
#710000000
1!
1(
17
1A
1L
1T
1Z
b000100100 ]
b100100 _
1`
#720000000
0!
0(
07
0A
0L
0T
0Z
0`
#730000000
1!
1(
17
1A
1L
1T
1Z
b000100101 ]
b100101 _
1`
#740000000
0!
0(
07
0A
0L
0T
0Z
0`
#750000000
1!
1(
17
1A
1L
1T
1Z
b000100110 ]
b100110 _
1`
#760000000
0!
0(
07
0A
0L
0T
0Z
0`
#770000000
1!
1(
17
1A
1L
1T
1Z
b000100111 ]
b100111 _
1`
#780000000
0!
0(
07
0A
0L
0T
0Z
0`
#790000000
1!
1(
17
1A
1L
1T
1Z
b000101000 ]
b101000 _
1`
#800000000
0!
0(
07
0A
0L
0T
0Z
0`
#810000000
1!
1(
17
1A
1L
1T
1Z
b000101001 ]
b101001 _
1`
#820000000
0!
0(
07
0A
0L
0T
0Z
0`
#830000000
1!
1(
17
1A
1L
1T
1Z
b000101010 ]
b101010 _
1`
#840000000
0!
0(
07
0A
0L
0T
0Z
0`
#850000000
1!
1(
17
1A
1L
1T
1Z
b000101011 ]
b101011 _
1`
#860000000
0!
0(
07
0A
0L
0T
0Z
0`
#870000000
1!
1(
17
1A
1L
1T
1Z
b000101100 ]
b101100 _
1`
#880000000
0!
0(
07
0A
0L
0T
0Z
0`
#890000000
1!
1(
17
1A
1L
1T
1Z
b000101101 ]
b101101 _
1`
#900000000
0!
0(
07
0A
0L
0T
0Z
0`
#910000000
1!
1(
17
1A
1L
1T
1Z
b000101110 ]
b101110 _
1`
#920000000
0!
0(
07
0A
0L
0T
0Z
0`
#930000000
1!
1(
17
1A
1L
1T
1Z
b000101111 ]
b101111 _
1`
#940000000
0!
0(
07
0A
0L
0T
0Z
0`
#950000000
1!
1(
17
1A
1L
1T
1Z
b000110000 ]
b110000 _
1`
#960000000
0!
0(
07
0A
0L
0T
0Z
0`
#970000000
1!
1(
17
1A
1L
1T
1Z
b000110001 ]
b110001 _
1`
#980000000
0!
0(
07
0A
0L
0T
0Z
0`
#990000000
1!
1(
17
1A
1L
1T
1Z
b000110010 ]
b110010 _
1`
#1000000000
0!
0(
07
0A
0L
0T
0Z
0`
#1010000000
1!
1(
17
1A
1L
1T
1Z
b000110011 ]
b110011 _
1`
#1020000000
0!
0(
07
0A
0L
0T
0Z
0`
#1030000000
1!
1(
17
1A
1L
1T
1Z
b000110100 ]
b110100 _
1`
#1040000000
0!
0(
07
0A
0L
0T
0Z
0`
#1050000000
1!
1(
17
1A
1L
1T
1Z
b000110101 ]
b110101 _
1`
#1060000000
0!
0(
07
0A
0L
0T
0Z
0`
#1070000000
1!
1(
17
1A
1L
1T
1Z
b000110110 ]
b110110 _
1`
#1080000000
0!
0(
07
0A
0L
0T
0Z
0`
#1090000000
1!
1(
17
1A
1L
1T
1Z
b000110111 ]
b110111 _
1`
#1100000000
0!
0(
07
0A
0L
0T
0Z
0`
#1110000000
1!
1(
17
1A
1L
1T
1Z
b000111000 ]
b111000 _
1`
#1120000000
0!
0(
07
0A
0L
0T
0Z
0`
#1130000000
1!
1(
17
1A
1L
1T
1Z
b000111001 ]
b111001 _
1`
#1140000000
0!
0(
07
0A
0L
0T
0Z
0`
#1150000000
1!
1(
17
1A
1L
1T
1Z
b000111010 ]
b111010 _
1`
#1160000000
0!
0(
07
0A
0L
0T
0Z
0`
#1170000000
1!
1(
17
1A
1L
1T
1Z
b000111011 ]
b111011 _
1`
#1180000000
0!
0(
07
0A
0L
0T
0Z
0`
#1190000000
1!
1(
17
1A
1L
1T
1Z
b000111100 ]
b111100 _
1`
#1200000000
0!
0(
07
0A
0L
0T
0Z
0`
#1210000000
1!
1(
17
1A
1L
1T
1Z
b000111101 ]
b111101 _
1`
#1220000000
0!
0(
07
0A
0L
0T
0Z
0`
#1230000000
1!
1(
17
1A
1L
1T
1Z
b000111110 ]
b111110 _
1`
#1240000000
0!
0(
07
0A
0L
0T
0Z
0`
#1250000000
1!
1(
17
1A
1L
1T
1Z
b000111111 ]
b111111 _
1`
#1260000000
0!
0(
07
0A
0L
0T
0Z
0`
#1270000000
1!
1(
17
1A
1L
1T
1Z
b001000000 ]
b1000000 _
1`
#1280000000
0!
0(
07
0A
0L
0T
0Z
0`
#1290000000
1!
1(
17
1A
1L
1T
1Z
b001000001 ]
b1000001 _
1`
#1300000000
0!
0(
07
0A
0L
0T
0Z
0`
#1310000000
1!
1(
17
1A
1L
1T
1Z
b001000010 ]
b1000010 _
1`
#1320000000
0!
0(
07
0A
0L
0T
0Z
0`
#1330000000
1!
1(
17
1A
1L
1T
1Z
b001000011 ]
b1000011 _
1`
#1340000000
0!
0(
07
0A
0L
0T
0Z
0`
#1350000000
1!
1(
17
1A
1L
1T
1Z
b001000100 ]
b1000100 _
1`
#1360000000
0!
0(
07
0A
0L
0T
0Z
0`
#1370000000
1!
1(
17
1A
1L
1T
1Z
b001000101 ]
b1000101 _
1`
#1380000000
0!
0(
07
0A
0L
0T
0Z
0`
#1390000000
1!
1(
17
1A
1L
1T
1Z
b001000110 ]
b1000110 _
1`
#1400000000
0!
0(
07
0A
0L
0T
0Z
0`
#1410000000
1!
1(
17
1A
1L
1T
1Z
b001000111 ]
b1000111 _
1`
#1420000000
0!
b0110101 $
0(
b0110101 +
07
0A
b0110101 G
b110011010101 J
0L
b110011010101 Q
0T
0Z
0`
#1430000000
1!
1(
17
1A
1L
1T
1Z
b001001000 ]
b1001000 _
1`
#1440000000
0!
0(
07
0A
0L
0T
0Z
0`
#1450000000
1!
1(
17
1A
1L
1T
1Z
b001001001 ]
b1001001 _
1`
#1460000000
0!
0(
07
0A
0L
0T
0Z
0`
#1470000000
1!
1(
17
1A
1L
1T
1Z
b001001010 ]
b1001010 _
1`
#1480000000
0!
0(
07
0A
0L
0T
0Z
0`
#1490000000
1!
1(
17
1A
1L
1T
1Z
b001001011 ]
b1001011 _
1`
#1500000000
0!
0(
07
0A
0L
0T
0Z
0`
#1510000000
1!
1(
17
1A
1L
1T
1Z
b001001100 ]
b1001100 _
1`
#1520000000
0!
0(
07
0A
0L
0T
0Z
0`
#1530000000
1!
1(
17
1A
1L
1T
1Z
b001001101 ]
b1001101 _
1`
#1540000000
0!
0(
07
0A
0L
0T
0Z
0`
#1550000000
1!
1(
17
1A
1L
1T
1Z
b001001110 ]
b1001110 _
1`
#1560000000
0!
0(
07
0A
0L
0T
0Z
0`
#1570000000
1!
1(
17
1A
1L
1T
1Z
b001001111 ]
b1001111 _
1`
#1580000000
0!
0(
07
0A
0L
0T
0Z
0`
#1590000000
1!
1(
17
1A
1L
1T
1Z
b001010000 ]
b1010000 _
1`
#1600000000
0!
0(
07
0A
0L
0T
0Z
0`
#1610000000
1!
1(
17
1A
1L
1T
1Z
b001010001 ]
b1010001 _
1`
#1620000000
0!
0(
07
0A
0L
0T
0Z
0`
#1630000000
1!
1(
17
1A
1L
1T
1Z
b001010010 ]
b1010010 _
1`
#1640000000
0!
0(
07
0A
0L
0T
0Z
0`
#1650000000
1!
1(
17
1A
1L
1T
1Z
b001010011 ]
b1010011 _
1`
#1660000000
0!
0(
07
0A
0L
0T
0Z
0`
#1670000000
1!
1(
17
1A
1L
1T
1Z
b001010100 ]
b1010100 _
1`
#1680000000
0!
0(
07
0A
0L
0T
0Z
0`
#1690000000
1!
1(
17
1A
1L
1T
1Z
b001010101 ]
b1010101 _
1`
#1700000000
0!
0(
07
0A
0L
0T
0Z
0`
#1710000000
1!
1(
17
1A
1L
1T
1Z
b001010110 ]
b1010110 _
1`
#1720000000
0!
0(
07
0A
0L
0T
0Z
0`
#1730000000
1!
1(
17
1A
1L
1T
1Z
b001010111 ]
b1010111 _
1`
#1740000000
0!
0(
07
0A
0L
0T
0Z
0`
#1750000000
1!
1(
17
1A
1L
1T
1Z
b001011000 ]
b1011000 _
1`
#1760000000
0!
0(
07
0A
0L
0T
0Z
0`
#1770000000
1!
1(
17
1A
1L
1T
1Z
b001011001 ]
b1011001 _
1`
#1780000000
0!
0(
07
0A
0L
0T
0Z
0`
#1790000000
1!
1(
17
1A
1L
1T
1Z
b001011010 ]
b1011010 _
1`
#1800000000
0!
0(
07
0A
0L
0T
0Z
0`
#1810000000
1!
1(
17
1A
1L
1T
1Z
b001011011 ]
b1011011 _
1`
#1820000000
0!
1#
0(
1*
1/
10
07
19
0A
0L
0T
0Z
0`
1a
1b
#1830000000
1!
1(
00
11
13
17
09
1<
1>
1A
1C
1E
1L
1N
1T
1U
1Z
1[
b000000000 ]
b0 _
1`
0b
1c
#1840000000
0!
0(
07
0A
0L
0T
0Z
0`
#1850000000
1!
1(
01
03
17
0<
0>
1A
0C
0E
b110011010101 K
1L
0N
b110011010101 R
b110011010101 S
1T
0U
1Z
0[
1`
#1860000000
0!
0(
07
0A
0L
0T
0Z
0`
#1870000000
1!
1(
17
1A
1L
1T
1Z
b000000001 ]
b1 _
1`
#1880000000
0!
0(
07
0A
0L
0T
0Z
0`
#1890000000
1!
1(
17
1A
1L
1T
1Z
b000000010 ]
b10 _
1`
#1900000000
0!
0(
07
0A
0L
0T
0Z
0`
#1910000000
1!
1(
17
1A
1L
1T
1Z
b000000011 ]
b11 _
1`
#1920000000
0!
0(
07
0A
0L
0T
0Z
0`
#1930000000
1!
0#
1(
0*
0/
17
1A
1L
1T
1Z
b000000100 ]
b100 _
1`
0a
#1940000000
0!
0(
07
0A
0L
0T
0Z
0`
#1950000000
1!
1(
17
1A
1L
1T
1Z
b000000101 ]
b101 _
1`
0c
#1960000000
0!
0(
07
0A
0L
0T
0Z
0`
#1970000000
1!
1(
17
1A
1L
1T
1Z
b000000110 ]
b110 _
1`
#1980000000
0!
0(
07
0A
0L
0T
0Z
0`
#1990000000
1!
1(
17
1A
1L
1T
1Z
b000000111 ]
b111 _
1`
#2000000000
0!
0(
07
0A
0L
0T
0Z
0`
#2010000000
1!
1(
17
1A
1L
1T
1Z
b000001000 ]
b1000 _
1`
#2020000000
0!
0(
07
0A
0L
0T
0Z
0`
#2030000000
1!
1(
17
1A
1L
1T
1Z
b000001001 ]
b1001 _
1`
#2040000000
0!
0(
07
0A
0L
0T
0Z
0`
#2050000000
1!
1(
17
1A
1L
1T
1Z
b000001010 ]
b1010 _
1`
#2060000000
0!
0(
07
0A
0L
0T
0Z
0`
#2070000000
1!
1(
17
1A
1L
1T
1Z
b000001011 ]
b1011 _
1`
#2080000000
0!
0(
07
0A
0L
0T
0Z
0`
#2090000000
1!
1(
17
1A
1L
1T
1Z
b000001100 ]
b1100 _
1`
#2100000000
0!
0(
07
0A
0L
0T
0Z
0`
#2110000000
1!
1(
17
1A
1L
1T
1Z
b000001101 ]
b1101 _
1`
#2120000000
0!
0(
07
0A
0L
0T
0Z
0`
#2130000000
1!
1(
17
1A
1L
1T
1Z
b000001110 ]
b1110 _
1`
#2140000000
0!
0(
07
0A
0L
0T
0Z
0`
#2150000000
1!
1(
17
1A
1L
1T
1Z
b000001111 ]
b1111 _
1`
#2160000000
0!
0(
07
0A
0L
0T
0Z
0`
#2170000000
1!
1(
17
1A
1L
1T
1Z
b000010000 ]
b10000 _
1`
#2180000000
0!
0(
07
0A
0L
0T
0Z
0`
#2190000000
1!
1(
17
1A
1L
1T
1Z
b000010001 ]
b10001 _
1`
#2200000000
0!
0(
07
0A
0L
0T
0Z
0`
#2210000000
1!
1(
17
1A
1L
1T
1Z
b000010010 ]
b10010 _
1`
#2220000000
0!
0(
07
0A
0L
0T
0Z
0`
#2230000000
1!
1(
17
1A
1L
1T
1Z
b000010011 ]
b10011 _
1`
#2240000000
0!
0(
07
0A
0L
0T
0Z
0`
#2250000000
1!
1(
17
1A
1L
1T
1Z
b000010100 ]
b10100 _
1`
#2260000000
0!
0(
07
0A
0L
0T
0Z
0`
#2270000000
1!
1(
17
1A
1L
1T
1Z
b000010101 ]
b10101 _
1`
#2280000000
0!
0(
07
0A
0L
0T
0Z
0`
#2290000000
1!
1(
17
1A
1L
1T
1Z
b000010110 ]
b10110 _
1`
#2300000000
0!
0(
07
0A
0L
0T
0Z
0`
#2310000000
1!
1(
17
1A
1L
1T
1Z
b000010111 ]
b10111 _
1`
#2320000000
0!
0(
07
0A
0L
0T
0Z
0`
#2330000000
1!
1(
17
1A
1L
1T
1Z
b000011000 ]
b11000 _
1`
#2340000000
0!
0(
07
0A
0L
0T
0Z
0`
#2350000000
1!
1(
17
1A
1L
1T
1Z
b000011001 ]
b11001 _
1`
#2360000000
0!
0(
07
0A
0L
0T
0Z
0`
#2370000000
1!
1(
17
1A
1L
1T
1Z
b000011010 ]
b11010 _
1`
#2380000000
0!
0(
07
0A
0L
0T
0Z
0`
#2390000000
1!
1(
17
1A
1L
1T
1Z
b000011011 ]
b11011 _
1`
#2400000000
0!
0(
07
0A
0L
0T
0Z
0`
#2410000000
1!
1(
17
1A
1L
1T
1Z
b000011100 ]
b11100 _
1`
#2420000000
0!
0(
07
0A
0L
0T
0Z
0`
#2430000000
1!
1(
17
1A
1L
1T
1Z
b000011101 ]
b11101 _
1`
#2440000000
0!
0(
07
0A
0L
0T
0Z
0`
#2450000000
1!
1(
17
1A
1L
1T
1Z
b000011110 ]
b11110 _
1`
#2460000000
0!
0(
07
0A
0L
0T
0Z
0`
#2470000000
1!
1(
17
1A
1L
1T
1Z
b000011111 ]
b11111 _
1`
#2480000000
0!
0(
07
0A
0L
0T
0Z
0`
#2490000000
1!
1(
17
1A
1L
1T
1Z
b000100000 ]
b100000 _
1`
#2500000000
0!
0(
07
0A
0L
0T
0Z
0`
#2510000000
1!
1(
17
1A
1L
1T
1Z
b000100001 ]
b100001 _
1`
#2520000000
0!
0(
07
0A
0L
0T
0Z
0`
#2530000000
1!
1(
17
1A
1L
1T
1Z
b000100010 ]
b100010 _
1`
#2540000000
0!
0(
07
0A
0L
0T
0Z
0`
#2550000000
1!
1(
17
1A
1L
1T
1Z
b000100011 ]
b100011 _
1`
#2560000000
0!
0(
07
0A
0L
0T
0Z
0`
#2570000000
1!
1(
17
1A
1L
1T
1Z
b000100100 ]
b100100 _
1`
#2580000000
0!
0(
07
0A
0L
0T
0Z
0`
#2590000000
1!
1(
17
1A
1L
1T
1Z
b000100101 ]
b100101 _
1`
#2600000000
0!
0(
07
0A
0L
0T
0Z
0`
#2610000000
1!
1(
17
1A
1L
1T
1Z
b000100110 ]
b100110 _
1`
#2620000000
0!
0(
07
0A
0L
0T
0Z
0`
#2630000000
1!
1(
17
1A
1L
1T
1Z
b000100111 ]
b100111 _
1`
#2640000000
0!
0(
07
0A
0L
0T
0Z
0`
#2650000000
1!
1(
17
1A
1L
1T
1Z
b000101000 ]
b101000 _
1`
#2660000000
0!
0(
07
0A
0L
0T
0Z
0`
#2670000000
1!
1(
17
1A
1L
1T
1Z
b000101001 ]
b101001 _
1`
#2680000000
0!
0(
07
0A
0L
0T
0Z
0`
#2690000000
1!
1(
17
1A
1L
1T
1Z
b000101010 ]
b101010 _
1`
#2700000000
0!
0(
07
0A
0L
0T
0Z
0`
#2710000000
1!
1(
17
1A
1L
1T
1Z
b000101011 ]
b101011 _
1`
#2720000000
0!
0(
07
0A
0L
0T
0Z
0`
#2730000000
1!
1(
17
1A
1L
1T
1Z
b000101100 ]
b101100 _
1`
#2740000000
0!
0(
07
0A
0L
0T
0Z
0`
#2750000000
1!
1(
17
1A
1L
1T
1Z
b000101101 ]
b101101 _
1`
#2760000000
0!
0(
07
0A
0L
0T
0Z
0`
#2770000000
1!
1(
17
1A
1L
1T
1Z
b000101110 ]
b101110 _
1`
#2780000000
0!
0(
07
0A
0L
0T
0Z
0`
#2790000000
1!
1(
17
1A
1L
1T
1Z
b000101111 ]
b101111 _
1`
#2800000000
0!
0(
07
0A
0L
0T
0Z
0`
#2810000000
1!
1(
17
1A
1L
1T
1Z
b000110000 ]
b110000 _
1`
#2820000000
0!
0(
07
0A
0L
0T
0Z
0`
#2830000000
1!
1(
17
1A
1L
1T
1Z
b000110001 ]
b110001 _
1`
#2840000000
0!
0(
07
0A
0L
0T
0Z
0`
#2850000000
1!
1(
17
1A
1L
1T
1Z
b000110010 ]
b110010 _
1`
#2860000000
0!
0(
07
0A
0L
0T
0Z
0`
#2870000000
1!
1(
17
1A
1L
1T
1Z
b000110011 ]
b110011 _
1`
#2880000000
0!
0(
07
0A
0L
0T
0Z
0`
#2890000000
1!
1(
17
1A
1L
1T
1Z
b000110100 ]
b110100 _
1`
#2900000000
0!
0(
07
0A
0L
0T
0Z
0`
#2910000000
1!
1(
17
1A
1L
1T
1Z
b000110101 ]
b110101 _
1`
#2920000000
0!
0(
07
0A
0L
0T
0Z
0`
#2930000000
1!
1(
17
1A
1L
1T
1Z
b000110110 ]
b110110 _
1`
#2940000000
0!
0(
07
0A
0L
0T
0Z
0`
#2950000000
1!
1(
17
1A
1L
1T
1Z
b000110111 ]
b110111 _
1`
#2960000000
0!
0(
07
0A
0L
0T
0Z
0`
#2970000000
1!
1(
17
1A
1L
1T
1Z
b000111000 ]
b111000 _
1`
#2980000000
0!
0(
07
0A
0L
0T
0Z
0`
#2990000000
1!
1(
17
1A
1L
1T
1Z
b000111001 ]
b111001 _
1`
#3000000000
0!
0(
07
0A
0L
0T
0Z
0`
#3010000000
1!
1(
17
1A
1L
1T
1Z
b000111010 ]
b111010 _
1`
#3020000000
0!
0(
07
0A
0L
0T
0Z
0`
#3030000000
1!
1(
17
1A
1L
1T
1Z
b000111011 ]
b111011 _
1`
#3040000000
0!
0(
07
0A
0L
0T
0Z
0`
#3050000000
1!
1(
17
1A
1L
1T
1Z
b000111100 ]
b111100 _
1`
#3060000000
0!
0(
07
0A
0L
0T
0Z
0`
#3070000000
1!
1(
17
1A
1L
1T
1Z
b000111101 ]
b111101 _
1`
#3080000000
0!
0(
07
0A
0L
0T
0Z
0`
#3090000000
1!
1(
17
1A
1L
1T
1Z
b000111110 ]
b111110 _
1`
#3100000000
0!
0(
07
0A
0L
0T
0Z
0`
#3110000000
1!
1(
17
1A
1L
1T
1Z
b000111111 ]
b111111 _
1`
#3120000000
0!
0(
07
0A
0L
0T
0Z
0`
#3130000000
1!
1(
17
1A
1L
1T
1Z
b001000000 ]
b1000000 _
1`
#3140000000
0!
0(
07
0A
0L
0T
0Z
0`
#3150000000
1!
1(
17
1A
1L
1T
1Z
b001000001 ]
b1000001 _
1`
#3160000000
0!
0(
07
0A
0L
0T
0Z
0`
#3170000000
1!
1(
17
1A
1L
1T
1Z
b001000010 ]
b1000010 _
1`
#3180000000
0!
0(
07
0A
0L
0T
0Z
0`
#3190000000
1!
1(
17
1A
1L
1T
1Z
b001000011 ]
b1000011 _
1`
#3200000000
0!
0(
07
0A
0L
0T
0Z
0`
#3210000000
1!
1(
17
1A
1L
1T
1Z
b001000100 ]
b1000100 _
1`
#3220000000
0!
0(
07
0A
0L
0T
0Z
0`
#3230000000
1!
1(
17
1A
1L
1T
1Z
b001000101 ]
b1000101 _
1`
#3240000000
0!
0(
07
0A
0L
0T
0Z
0`
#3250000000
1!
1(
17
1A
1L
1T
1Z
b001000110 ]
b1000110 _
1`
#3260000000
0!
0(
07
0A
0L
0T
0Z
0`
#3270000000
1!
1(
17
1A
1L
1T
1Z
b001000111 ]
b1000111 _
1`
#3280000000
0!
0(
07
0A
0L
0T
0Z
0`
#3290000000
1!
1(
17
1A
1L
1T
1Z
b001001000 ]
b1001000 _
1`
#3300000000
0!
0(
07
0A
0L
0T
0Z
0`
#3310000000
1!
1(
17
1A
1L
1T
1Z
b001001001 ]
b1001001 _
1`
#3320000000
0!
0(
07
0A
0L
0T
0Z
0`
#3330000000
1!
1(
17
1A
1L
1T
1Z
b001001010 ]
b1001010 _
1`
#3340000000
0!
0(
07
0A
0L
0T
0Z
0`
#3350000000
1!
1(
17
1A
1L
1T
1Z
b001001011 ]
b1001011 _
1`
#3360000000
0!
0(
07
0A
0L
0T
0Z
0`
#3370000000
1!
1(
17
1A
1L
1T
1Z
b001001100 ]
b1001100 _
1`
#3380000000
0!
0(
07
0A
0L
0T
0Z
0`
#3390000000
1!
1(
17
1A
1L
1T
1Z
b001001101 ]
b1001101 _
1`
#3400000000
0!
0(
07
0A
0L
0T
0Z
0`
#3410000000
1!
1(
17
1A
1L
1T
1Z
b001001110 ]
b1001110 _
1`
#3420000000
0!
0(
07
0A
0L
0T
0Z
0`
#3430000000
1!
1(
17
1A
1L
1T
1Z
b001001111 ]
b1001111 _
1`
#3440000000
0!
0(
07
0A
0L
0T
0Z
0`
#3450000000
1!
1(
17
1A
1L
1T
1Z
b001010000 ]
b1010000 _
1`
#3460000000
0!
0(
07
0A
0L
0T
0Z
0`
#3470000000
1!
1(
17
1A
1L
1T
1Z
b001010001 ]
b1010001 _
1`
#3480000000
0!
0(
07
0A
0L
0T
0Z
0`
#3490000000
1!
1(
17
1A
1L
1T
1Z
b001010010 ]
b1010010 _
1`
#3500000000
0!
0(
07
0A
0L
0T
0Z
0`
#3510000000
1!
1(
17
1A
1L
1T
1Z
b001010011 ]
b1010011 _
1`
#3520000000
0!
0(
07
0A
0L
0T
0Z
0`
#3530000000
1!
1(
17
1A
1L
1T
1Z
b001010100 ]
b1010100 _
1`
#3540000000
0!
0(
07
0A
0L
0T
0Z
0`
#3550000000
1!
1(
17
1A
1L
1T
1Z
b001010101 ]
b1010101 _
1`
#3560000000
0!
0(
07
0A
0L
0T
0Z
0`
#3570000000
1!
1(
17
1A
1L
1T
1Z
b001010110 ]
b1010110 _
1`
#3580000000
0!
0(
07
0A
0L
0T
0Z
0`
#3590000000
1!
1(
17
1A
1L
1T
1Z
b001010111 ]
b1010111 _
1`
